…
``` r
gammaDF <- as_tibble(doc_topic_distr)
names(gammaDF) <- c(1:10)
    
data_frame(ID = attr(doc_topic_distr,"dimnames")[[1]],
       Тема = as.numeric(apply(gammaDF,1,function(x) names(gammaDF)[which(x==max(x))][1])),
       Відповідність = apply(gammaDF,1,max))
```

    ## # A tibble: 5,000 x 3
    ##       ID  Тема Відповідність
    ##    <chr> <dbl>         <dbl>
    ##  1     1     5     0.2621951
    ##  2     2     6     0.3750000
    ##  3     3     4     0.2822086
    ##  4     4     6     0.1826087
    ##  5     5     4     0.2455090
    ##  6     6     5     0.1600000
    ##  7     7     4     0.2857143
    ##  8     8     9     0.3018868
    ##  9     9     3     0.2933333
    ## 10    10     1     0.2222222
    ## # ... with 4,990 more rows
…
